<?xml version="1.0" encoding="UTF-8" standalone="no"?>
<svg width="98px" height="101px" viewBox="0 0 98 101" version="1.1" xmlns="http://www.w3.org/2000/svg" xmlns:xlink="http://www.w3.org/1999/xlink" xmlns:sketch="http://www.bohemiancoding.com/sketch/ns">
    <!-- Generator: Sketch 3.3.2 (12043) - http://www.bohemiancoding.com/sketch -->
    <title>button</title>
    <desc>Created with Sketch.</desc>
    <defs></defs>
    <g id="Page-1" stroke="none" stroke-width="1" fill="none" fill-rule="evenodd" sketch:type="MSPage">
        <g id="Auctions-list-notes" sketch:type="MSArtboardGroup" transform="translate(-912.000000, -1507.000000)">
            <g id="Auction-#1" sketch:type="MSLayerGroup" transform="translate(375.500000, 896.000000)">
                <g id="button" transform="translate(536.640000, 610.616394)" sketch:type="MSShapeGroup">
                    <g id="package" fill="#163850">
                        <path d="M48.9750392,0.903606028 L0,19.7965842 L0,82.5170487 L48.8772846,101.216463 L97.7545692,82.5170487 L97.7545692,19.8024498 L48.9750392,0.903606028 L48.9750392,0.903606028 Z" id="Shape-Copy-2"></path>
                    </g>
                    <path d="M45.24,41.2607087 L45.24,93.6519169 L4.98811857,78.2548142 L4.98811857,25.863606 L45.24,41.2607087 Z" id="Path-Copy-2" fill="#1B679C"></path>
                    <path d="M47.2025188,36.7632604 L9.36,22.2870511 L24.3624512,16.503606 L62.032462,31.091261 L47.2025188,36.7632604 L47.2025188,36.7632604 Z" id="Path-Copy-3" fill="#F6A623"></path>
                    <path d="M84.0073537,22.5302322 L69.1371587,28.2198282 L31.4326463,13.6204421 L46.2395884,7.90738381 L84.0073537,22.5302322 L84.0073537,22.5302322 Z" id="Path-Copy-4" fill="#F6A623"></path>
                </g>
            </g>
        </g>
    </g>
</svg>